{
    "token":"NDk0NDU1ODM0NDk1OTQyNjU2.Do58lA.-HV6qag7p0ZpOSDG0Jwjsmx_4dQ",
    "prefix":"*",
    "ownerid": "206037786808156160",
    "conner":"102740774168322048",
    "staffmanid": "",
    "adminid": "133028580081926145",
    "modid": [],
    "andrew": "248263781191254016"
}